{
    "date": "2023-02-07 16:03:10",
    "name": "Demo",
    "format": "xml",
    "files": ["Demo.xml"],
    "repository": {"origin": {"uri": "https://github.com/simplicitesoftware/module-demo.git"}},
    "version": "5",
    "platform": "5.2.31-preview"
}